<?xml version="1.0" encoding="UTF-8"?>
<svg width="15px" height="14px" viewBox="0 0 15 14" version="1.1" xmlns="http://www.w3.org/2000/svg" xmlns:xlink="http://www.w3.org/1999/xlink">
    <title>Shape</title>
    <g id="Active---THORChain.org" stroke="none" stroke-width="1" fill="none" fill-rule="evenodd">
        <g id="Technology" transform="translate(-1367.000000, -24.000000)" fill="#FFFFFF" fill-rule="nonzero">
            <g id="Social-Media" transform="translate(1327.000000, 24.000000)">
                <path d="M51.7423123,-0.000444638175 C51.5996528,-0.00160809717 51.4722782,0.0888279526 51.427697,0.225118534 L49.8062184,5.21692931 L45.1927101,5.21692931 L43.5712315,0.225118534 C43.5279243,0.0939229368 43.4069183,0.00348688696 43.2680801,-0.000444638175 C43.1292415,-0.00288176168 43.0044146,0.0811853134 42.9547384,0.211107572 L41.0008121,5.42582366 C40.9995381,5.42582366 40.9995381,5.42709733 40.9982645,5.42837132 L40.0200275,8.03700319 C39.9690777,8.17456776 40.0149325,8.32869095 40.1346648,8.41530568 L47.3058548,13.6300218 L47.3071285,13.6325694 C47.3122235,13.6363907 47.3173185,13.6389381 47.3211398,13.6414857 C47.3262348,13.6440331 47.3300561,13.6478544 47.3351511,13.6504017 C47.3364247,13.6504017 47.3364247,13.6516757 47.3376984,13.6516757 C47.3376984,13.6516757 47.3389724,13.6529494 47.340246,13.6529494 C47.3415197,13.654223 47.3427934,13.6554967 47.345341,13.6554967 C47.3466147,13.6567707 47.3491623,13.6580444 47.350436,13.659318 C47.3568047,13.6618657 47.3644473,13.6656867 47.3720896,13.6682343 C47.3797323,13.6720556 47.3873746,13.674603 47.3937432,13.6771506 C47.4013859,13.679698 47.4064808,13.6809716 47.4128495,13.6835193 C47.4153971,13.6835193 47.4179445,13.6847929 47.4217658,13.6847929 C47.4281344,13.6873406 47.4345031,13.6886143 47.4408721,13.6898879 C47.449788,13.6911616 47.4574307,13.6924356 47.466347,13.6937092 C47.4790843,13.6937092 47.4930956,13.6949829 47.5058329,13.6949829 C47.5185705,13.6937092 47.5300341,13.6937092 47.5414978,13.6911616 C47.5465927,13.6911616 47.5504141,13.6911616 47.555509,13.6898879 C47.555509,13.6898879 47.5567827,13.6898879 47.5580567,13.6898879 C47.560604,13.6886143 47.5618777,13.6886143 47.5644253,13.6886143 C47.565699,13.6886143 47.5669727,13.6873406 47.5695203,13.6873406 C47.5720677,13.6860666 47.575889,13.6860666 47.5784366,13.6847929 C47.5835316,13.6835193 47.5873526,13.6822456 47.5911739,13.6809716 C47.5937216,13.6809716 47.5949953,13.6809716 47.5962689,13.679698 C47.5975426,13.679698 47.5988166,13.679698 47.6000902,13.679698 C47.6051852,13.6771506 47.6115539,13.674603 47.6166489,13.6733293 C47.6230175,13.6707816 47.6281125,13.6682343 47.6332075,13.6656867 C47.6344815,13.6656867 47.6344815,13.6656867 47.6357551,13.664413 C47.6370288,13.664413 47.6383025,13.664413 47.6395764,13.6631393 C47.6421238,13.6618657 47.6446714,13.6605917 47.6472188,13.659318 C47.6548614,13.6554967 47.66123,13.6516757 47.6675987,13.6478544 C47.6701463,13.6465807 47.67142,13.6453067 47.6726937,13.6440331 C47.6739673,13.6440331 47.6752413,13.6427594 47.676515,13.6427594 C47.68161,13.6389381 47.686705,13.6363907 47.6917999,13.6325694 L47.6943473,13.6287481 L54.8655376,8.41530568 C54.9839959,8.32869095 55.0298508,8.17456776 54.9789009,8.03700319 L54.0032116,5.4372873 C54.0019376,5.43473997 54.000664,5.43091865 54.000664,5.42837132 L52.0441901,0.211107572 C51.9957879,0.085006633 51.8773292,0.000939231855 51.7423123,-0.000444638175 Z M41.9777751,5.86908728 L44.7188765,5.86908728 L46.6282219,11.743604 L41.9777751,5.86908728 Z M50.2800519,5.86908728 L53.0211533,5.86908728 L48.3707065,11.743604 L50.2800519,5.86908728 Z M41.4058632,6.19771392 L45.7671696,11.7066654 L40.7180403,8.03445554 L41.4058632,6.19771392 Z M53.5930652,6.19771392 L54.2808881,8.03445554 L49.2317588,11.7066654 L53.5930652,6.19771392 Z" id="Shape"></path>
            </g>
        </g>
    </g>
</svg>