<?xml version="1.0" encoding="UTF-8"?>
<svg width="15px" height="13px" viewBox="0 0 15 13" version="1.1" xmlns="http://www.w3.org/2000/svg" xmlns:xlink="http://www.w3.org/1999/xlink">
    <title>Path Copy 4</title>
    <g id="Active---THORChain.org" stroke="none" stroke-width="1" fill="none" fill-rule="evenodd">
        <g id="Technology---FINAL" transform="translate(-499.000000, -6236.000000)" fill="#02121D" fill-rule="nonzero">
            <g id="Content" transform="translate(-44.000000, 147.000000)">
                <g id="Reports-&amp;-Audits" transform="translate(208.000000, 5271.000000)">
                    <g id="But-Sir" transform="translate(0.000000, 591.000000)">
                        <g id="Call-to-Actions" transform="translate(29.500000, 213.000000)">
                            <g id="Button-Shape" transform="translate(285.500000, 0.000000)">
                                <path d="M21.0311743,19.4061882 L29.0861158,15.9010683 C32.9219022,14.2892992 33.7189158,14.0093362 34.2384165,14 C34.3526979,13.9980617 34.6081665,14.0266664 34.7736355,14.1623224 C34.9134139,14.2768527 34.9518116,14.431625 34.9702369,14.5401832 C34.9886623,14.6487415 35.0115351,14.8961929 34.9933308,15.0895047 C34.7854586,17.2958325 33.8860422,22.6501822 33.4284749,25.1213475 C33.2348292,26.167023 32.8538915,26.5176187 32.4845559,26.5519164 C31.6824595,26.6264839 31.0733734,26.016381 30.2964979,25.5019432 L27.2140788,23.4102295 C25.8503824,22.5024146 26.7344122,22.0034373 27.5115915,21.1879946 C27.7149609,20.9745061 31.2490081,17.7271353 31.317378,17.432549 C31.3256653,17.3957117 31.3338697,17.2584092 31.2531241,17.185851 C31.1723786,17.1132928 31.0531249,17.1384091 30.9671307,17.1578603 C30.8452251,17.1858231 28.903216,18.48255 25.141131,21.0480968 C24.58989,21.4305065 24.0905825,21.6168416 23.6432638,21.6070741 C23.1500889,21.596302 22.2014461,21.3253808 21.4962278,21.0937806 C20.6312311,20.8097431 19.9437476,20.6595476 20.0036369,20.1771471 C20.034797,19.9259003 20.3773095,19.6689605 21.0311467,19.406244 L21.0311743,19.4061882 Z" id="Path-Copy-4"></path>
                            </g>
                        </g>
                    </g>
                </g>
            </g>
        </g>
    </g>
</svg>