<svg width="197" height="227" viewBox="0 0 197 227" fill="none" xmlns="http://www.w3.org/2000/svg">
<path fill-rule="evenodd" clip-rule="evenodd" d="M80.1021 35.6438C78.9921 35.8715 77.8534 36 76.6743 36C66.8971 36 58.9487 27.9182 59.0005 17.9971C59.0005 8.07007 66.9488 0 76.7261 0C77.0137 0 77.2955 0.0233577 77.583 0.0525547L78.3307 0L118.975 0.00583942C118.993 0.00583942 119.011 0.00763688 119.03 0.0094689L119.03 0.00946951C119.058 0.0123071 119.088 0.0152271 119.119 0.0116788C119.137 0.0116788 119.159 0.00925525 119.183 0.00661618C119.212 0.003462 119.243 0 119.274 0C119.494 0 119.714 0.031183 119.934 0.0625395C120.084 0.0837361 120.234 0.105012 120.384 0.116788C129.765 0.618978 137 8.45547 137 17.9971C137 27.9182 129.046 36 119.274 36C118.101 36 116.939 35.8715 115.835 35.6438C115.601 35.5964 115.379 35.5261 115.157 35.4558C115.023 35.4137 114.89 35.3715 114.754 35.3343C114.029 35.1416 113.31 34.9431 112.632 34.6628C112.351 34.5464 112.087 34.4051 111.825 34.2656L111.825 34.2656L111.825 34.2656C111.707 34.2021 111.588 34.1391 111.47 34.0788C110.854 33.7752 110.279 33.4715 109.71 33.1095C109.388 32.8884 109.075 32.6413 108.767 32.398L108.617 32.2803C108.111 31.8949 107.616 31.4978 107.156 31.0599C106.846 30.7751 106.575 30.4681 106.301 30.1584L106.179 30.0204C105.765 29.5533 105.362 29.0803 105 28.5606C104.706 28.1693 104.453 27.7664 104.194 27.3518C103.878 26.8146 103.585 26.2657 103.314 25.6934C103.096 25.2496 102.895 24.8058 102.734 24.3387C102.509 23.7431 102.319 23.1358 102.164 22.5109C102.032 22.0321 101.917 21.5474 101.831 21.0453C101.812 20.9505 101.788 20.8593 101.764 20.7679C101.735 20.6566 101.706 20.5449 101.687 20.4263H94.2504C94.2382 20.5403 94.2085 20.6479 94.1788 20.7549C94.1523 20.8507 94.1259 20.946 94.1124 21.0453C94.0326 21.4755 93.9269 21.897 93.8215 22.3174L93.773 22.5109C93.612 23.1358 93.4337 23.7489 93.2151 24.3387C93.0369 24.8 92.8471 25.2496 92.6343 25.6934C92.3582 26.2657 92.0706 26.8146 91.7486 27.3518C91.4955 27.7723 91.2367 28.1752 90.9606 28.5606C90.5925 29.0803 90.1842 29.5591 89.7701 30.0204L89.6798 30.1222L89.6798 30.1223C89.3943 30.4443 89.1109 30.764 88.8039 31.0599C88.3323 31.4978 87.8434 31.8949 87.3373 32.2803C87.2784 32.3261 87.2198 32.3719 87.1613 32.4175C86.8545 32.6572 86.5519 32.8937 86.233 33.1095C85.6694 33.4715 85.0828 33.7752 84.4846 34.0788C84.3551 34.1436 84.2287 34.2109 84.1029 34.2778C83.8433 34.416 83.5865 34.5526 83.3114 34.6628C82.6558 34.9313 81.9685 35.1194 81.2749 35.3092L81.1834 35.3343C81.0327 35.3731 80.8851 35.4201 80.7371 35.4671C80.5292 35.5332 80.3206 35.5994 80.1021 35.6438ZM116.968 5.11533L116.416 5.22044C110.653 6.54015 106.317 11.7547 106.322 17.9912C106.322 25.2263 112.12 31.1124 119.246 31.1124C126.354 31.1124 132.152 25.2263 132.152 17.9912C132.152 10.7679 126.354 4.87591 119.246 4.87591C118.463 4.87591 117.71 4.97518 116.968 5.11533ZM107.185 4.88175C104.275 7.63796 102.325 11.3635 101.767 15.562H94.1756C93.6062 11.3635 91.6565 7.63796 88.7521 4.88175H107.185ZM89.5976 17.9971C89.5976 10.7737 83.8002 4.88175 76.6743 4.88175C69.5542 4.88175 63.7511 10.7679 63.7511 17.9971C63.7511 25.2321 69.5542 31.1182 76.6743 31.1182C83.8002 31.1182 89.5976 25.2321 89.5976 17.9971Z" fill="#02121D"/>
<path d="M116.404 40.4028C115.284 40.0981 114.474 39.878 113.693 39.5732C113.348 39.4377 113.026 39.2684 112.699 39.0991C111.688 38.6081 111.016 38.2751 110.39 37.8801C110.034 37.643 109.718 37.406 109.379 37.1633C108.558 36.5481 108.012 36.1192 107.484 35.6395C107.082 35.2557 106.731 34.8776 106.375 34.4938C105.904 33.9859 105.456 33.4554 105.049 32.8854C104.715 32.4621 104.451 32.0275 104.158 31.576C103.791 30.9778 103.446 30.3739 103.142 29.7418C102.912 29.2564 102.682 28.7711 102.487 28.2631C102.229 27.5915 102.033 26.9312 101.849 26.254C101.832 26.1637 101.809 26.079 101.781 26H98.1735C98.1506 26.0847 98.1276 26.175 98.0989 26.2596C97.9208 26.9312 97.7255 27.5915 97.4671 28.2519C97.2718 28.7711 97.0478 29.2564 96.8238 29.7418C96.5079 30.3795 96.1748 30.9778 95.8129 31.5647C95.5257 32.0162 95.2328 32.4621 94.9054 32.8854C94.4919 33.4554 94.0382 33.9802 93.5672 34.4938C93.2111 34.8776 92.8607 35.2557 92.4816 35.6113C91.936 36.1192 91.3846 36.5481 90.816 36.9771C90.2302 37.4116 89.9028 37.6487 89.5639 37.8688C88.9264 38.2695 88.2544 38.6025 87.5824 38.9411C86.9046 39.2854 86.5772 39.4434 86.2384 39.5732C85.4745 39.878 84.6589 40.0981 83.8375 40.3182C83.2172 40.4988 82.9186 40.5891 82.6084 40.6511C78.8693 41.3905 75.2509 41.0462 72 39.9062C76.6753 50.5503 87.433 58 99.9828 58C112.555 58 123.359 50.5051 128 39.8046C125.881 40.5552 123.612 41.0349 121.223 41.0349C119.947 41.0349 118.644 40.9108 117.323 40.6511C117.013 40.5834 116.702 40.4931 116.404 40.4028Z" fill="#02121D"/>
<path d="M193.307 22.3514L147.689 5.30053C147.689 5.30053 138.535 1.9487 132.86 3.63606C136.812 7.28532 139.287 12.4275 139.287 18.1702C139.287 22.523 137.84 26.5154 135.474 29.8101L151.376 39.0133C137.375 48.8514 125.865 54.5999 115.855 64.0891C103.082 74.1732 98.4936 103.013 98.4936 103.013C95.0937 82.6957 81.3849 64.3179 81.3849 64.3179C71.4838 54.8458 57.3213 46.5406 43.2162 36.6224L59.9688 29.2266C57.8496 26.0464 56.5804 22.2484 56.5804 18.1702C56.5804 12.3016 59.182 7.05652 63.2424 3.39582C60.3364 1.85719 49.2981 5.30053 49.2981 5.30053L3.6978 22.3514C0.912393 25.4287 -0.391294 29.5469 0.102614 33.6652C0.602265 37.7721 2.85357 41.4671 6.29369 43.7951C15.7469 50.2127 39.1213 66.5372 53.4274 78.1027L53.9845 86.0361L53.6801 203.11V319.652C53.6801 329.238 60.7269 337 70.6166 337C80.512 337 88.5236 329.238 88.5236 319.652V198.225C88.5236 198.225 89.1037 192.071 95.4039 192.002C101.704 191.922 101.532 197.911 101.532 197.911V319.314C101.532 328.901 109.549 336.663 119.445 336.663C129.346 336.663 137.346 328.901 137.346 319.314L137.943 194.05C137.943 192.86 138.087 83.5251 138.087 83.5251C138.087 83.5251 138.018 83.3592 137.932 82.8502C150.733 71.5478 179.874 51.1622 190.705 43.7951C194.151 41.4671 196.402 37.7721 196.896 33.6652C197.396 29.5527 196.075 25.4287 193.307 22.3514Z" fill="#02121D"/>
<ellipse cx="98" cy="88.5" rx="39" ry="27.5" fill="#02121D"/>
<path d="M117 64.1733L82 64.4133C92.5548 68.3133 104.795 69.6633 117 64.1733Z" fill="#02121D"/>
</svg>
