<?xml version="1.0" encoding="UTF-8"?>
<svg width="1440px" height="2px" viewBox="0 0 1440 2" version="1.1" xmlns="http://www.w3.org/2000/svg" xmlns:xlink="http://www.w3.org/1999/xlink">
    <title>Line 3 Copy 4</title>
    <defs>
        <linearGradient x1="0%" y1="49.9999035%" x2="100%" y2="50.0000965%" id="linearGradient-1">
            <stop stop-color="#02121D" offset="0%"></stop>
            <stop stop-color="#23DCC8" offset="47.1800904%"></stop>
            <stop stop-color="#02121D" offset="100%"></stop>
        </linearGradient>
    </defs>
    <g id="Active---THORChain.org" stroke="none" stroke-width="1" fill="none" fill-rule="evenodd" stroke-linecap="square">
        <g id="Technology---FINAL" transform="translate(0.000000, -4714.000000)" stroke="url(#linearGradient-1)" stroke-width="2">
            <g id="Content" transform="translate(-44.000000, 147.000000)">
                <g id="Rewriting-Legacy" transform="translate(44.000000, 4184.000000)">
                    <g id="Tron-Grids" transform="translate(0.000000, 170.000000)">
                        <line x1="0" y1="214" x2="1440" y2="214" id="Line-3-Copy-4"></line>
                    </g>
                </g>
            </g>
        </g>
    </g>
</svg>