<?xml version="1.0" encoding="UTF-8"?>
<svg width="211px" height="56px" viewBox="0 0 211 56" version="1.1" xmlns="http://www.w3.org/2000/svg" xmlns:xlink="http://www.w3.org/1999/xlink">
    <title>Group 4</title>
    <defs>
        <filter x="-6.8%" y="-43.6%" width="113.6%" height="187.3%" filterUnits="objectBoundingBox" id="filter-1">
            <feGaussianBlur stdDeviation="4" in="SourceGraphic"></feGaussianBlur>
        </filter>
    </defs>
    <g id="Active---THORChain.org" stroke="none" stroke-width="1" fill="none" fill-rule="evenodd">
        <g id="Technology---FINAL" transform="translate(-545.000000, -4318.000000)" fill-rule="nonzero" stroke="#23DCC8">
            <g id="Content" transform="translate(-44.000000, 147.000000)">
                <g id="Rewriting-Legacy" transform="translate(44.000000, 4184.000000)">
                    <g id="Heading" transform="translate(438.000000, 0.000000)">
                        <g id="Group-4" transform="translate(120.680000, 0.880000)">
                            <path d="M6,28.12 L6,17.36 L10.28,17.36 C11.92,17.36 12.72,17.92 13.24,19.68 L15.32,28.12 L21.76,28.12 L19.36,19.52 C18.72,16.68 16.84,15.68 15.44,15.36 L15.44,15.16 C19.36,14.68 20.72,12.2 20.72,8.32 C20.72,2 17.72,0.16 10.52,0.16 C7.09931034,0.16 4.97231867,0.17902497 2.8925614,0.295798926 L2.26880479,0.333842306 C1.53983353,0.381831153 0.80137931,0.442758621 1.70530257e-13,0.52 L1.70530257e-13,28.12 L6,28.12 Z M10.4,12.64 L6,12.64 L6,4.88 L10.4,4.84 C13.6,4.84 14.56,5.64 14.56,8.72 C14.56,11.76 13.6,12.64 10.4,12.64 Z M43.96,27.84 L43.68,23.36 L33.08,23.36 C31.76,23.36 31.2,22.76 31.2,21.28 L31.2,15.96 L42.2,15.96 L42.2,11.56 L31.2,11.56 L31.2,7.36 C31.2,5.92 31.76,5.32 33.08,5.32 L43.68,5.32 L43.96,0.8 C40.2,0.4 35.44,0.4 31.16,0.4 C27.48,0.4 25.12,2.56 25.08,5.96 L25.08,22.68 C25.12,26.08 27.48,28.24 31.16,28.24 L32.7846094,28.2392187 C36.614375,28.23375 40.67,28.19 43.96,27.84 Z M58.6,28.12 C59.72,28.12 60.64,27.44 60.8,26.4 L63.76,8.4 C63.96,7.24 64.08,6.04 64.24,4.88 L65,4.88 C65.12,6.04 65.28,7.2 65.48,8.36 L68.48,26.4 C68.64,27.44 69.56,28.12 70.64,28.12 L76.48,28.12 C77.6,28.12 78.48,27.44 78.68,26.44 L83.04,0.52 L76.84,0.52 L74.12,19.76 C73.96,20.96 73.84,22.4 73.76,23.68 L72.92,23.68 C72.8,22.44 72.56,21 72.36,19.72 L69.4,2.4 C69.24,1.28 68.4,0.52 67.28,0.52 L62,0.52 C60.84,0.52 60,1.28 59.84,2.4 L56.88,19.68 C56.68,20.92 56.44,22.36 56.28,23.68 L55.48,23.68 C55.4,22.2 55.28,20.88 55.12,19.68 L52.44,0.52 L46.2,0.52 L50.56,26.44 C50.76,27.44 51.68,28.12 52.76,28.12 L58.6,28.12 Z M92.56,28.12 L92.56,0.52 L86.48,0.52 L86.48,28.12 L92.56,28.12 Z M103.76,28.12 L103.76,17.36 L108.04,17.36 C109.68,17.36 110.48,17.92 111,19.68 L113.08,28.12 L119.52,28.12 L117.12,19.52 C116.48,16.68 114.6,15.68 113.2,15.36 L113.2,15.16 C117.12,14.68 118.48,12.2 118.48,8.32 C118.48,2 115.48,0.16 108.28,0.16 C104.85931,0.16 102.732319,0.17902497 100.652561,0.295798926 L100.028805,0.333842306 C99.2998335,0.381831153 98.5613793,0.442758621 97.76,0.52 L97.76,28.12 L103.76,28.12 Z M108.16,12.64 L103.76,12.64 L103.76,4.88 L108.16,4.84 C111.36,4.84 112.32,5.64 112.32,8.72 C112.32,11.76 111.36,12.64 108.16,12.64 Z M129.16,28.12 L129.16,0.52 L123.08,0.52 L123.08,28.12 L129.16,28.12 Z M140.16,28.12 L140.16,11.72 C140.16,10.28 140.08,8.76 139.88,7.32 L140.32,7.32 C140.64,8.68 141.44,10.4 142,11.6 L149.24,26.32 C149.84,27.52 150.4,28.12 151.68,28.12 L155.48,28.12 C156.92,28.12 157.64,27.36 157.64,25.92 L157.64,0.52 L151.88,0.52 L151.88,16.4 C151.88,17.96 152,19.48 152.12,21.04 L151.72,21.04 C151.08,19.48 150.32,17.8 149.72,16.6 L142.72,2.32 C142.12,1.12 141.56,0.52 140.28,0.52 L136.56,0.52 C135.12,0.52 134.36,1.28 134.36,2.72 L134.36,28.12 L140.16,28.12 Z M170.72,28.64 C174.52,28.64 177.28,26.8 178.68,25.32 L179.24,28.12 L183.72,28.12 L183.72,12.2 L177.84,12.2 L177.84,22.04 C176.48,22.8 174.84,23.44 172.88,23.44 C169.44,23.44 168.36,21.32 168.36,14.44 C168.36,6.44 169.88,5.24 174.48,5.24 C176.88,5.24 179.56,5.32 182.28,5.44 L182.76,0.96 C180.16,0.24 177.52,-2.91322522e-13 174.28,-2.91322522e-13 C165.2,-2.91322522e-13 161.92,3.32 161.92,14.24 C161.92,24.36 164.52,28.64 170.72,28.64 Z" id="REWIRING" filter="url(#filter-1)"></path>
                            <path d="M6,28.12 L6,17.36 L10.28,17.36 C11.92,17.36 12.72,17.92 13.24,19.68 L15.32,28.12 L21.76,28.12 L19.36,19.52 C18.72,16.68 16.84,15.68 15.44,15.36 L15.44,15.16 C19.36,14.68 20.72,12.2 20.72,8.32 C20.72,2 17.72,0.16 10.52,0.16 C7.09931034,0.16 4.97231867,0.17902497 2.8925614,0.295798926 L2.26880479,0.333842306 C1.53983353,0.381831153 0.80137931,0.442758621 1.70530257e-13,0.52 L1.70530257e-13,28.12 L6,28.12 Z M10.4,12.64 L6,12.64 L6,4.88 L10.4,4.84 C13.6,4.84 14.56,5.64 14.56,8.72 C14.56,11.76 13.6,12.64 10.4,12.64 Z M43.96,27.84 L43.68,23.36 L33.08,23.36 C31.76,23.36 31.2,22.76 31.2,21.28 L31.2,15.96 L42.2,15.96 L42.2,11.56 L31.2,11.56 L31.2,7.36 C31.2,5.92 31.76,5.32 33.08,5.32 L43.68,5.32 L43.96,0.8 C40.2,0.4 35.44,0.4 31.16,0.4 C27.48,0.4 25.12,2.56 25.08,5.96 L25.08,22.68 C25.12,26.08 27.48,28.24 31.16,28.24 L32.7846094,28.2392187 C36.614375,28.23375 40.67,28.19 43.96,27.84 Z M58.6,28.12 C59.72,28.12 60.64,27.44 60.8,26.4 L63.76,8.4 C63.96,7.24 64.08,6.04 64.24,4.88 L65,4.88 C65.12,6.04 65.28,7.2 65.48,8.36 L68.48,26.4 C68.64,27.44 69.56,28.12 70.64,28.12 L76.48,28.12 C77.6,28.12 78.48,27.44 78.68,26.44 L83.04,0.52 L76.84,0.52 L74.12,19.76 C73.96,20.96 73.84,22.4 73.76,23.68 L72.92,23.68 C72.8,22.44 72.56,21 72.36,19.72 L69.4,2.4 C69.24,1.28 68.4,0.52 67.28,0.52 L62,0.52 C60.84,0.52 60,1.28 59.84,2.4 L56.88,19.68 C56.68,20.92 56.44,22.36 56.28,23.68 L55.48,23.68 C55.4,22.2 55.28,20.88 55.12,19.68 L52.44,0.52 L46.2,0.52 L50.56,26.44 C50.76,27.44 51.68,28.12 52.76,28.12 L58.6,28.12 Z M92.56,28.12 L92.56,0.52 L86.48,0.52 L86.48,28.12 L92.56,28.12 Z M103.76,28.12 L103.76,17.36 L108.04,17.36 C109.68,17.36 110.48,17.92 111,19.68 L113.08,28.12 L119.52,28.12 L117.12,19.52 C116.48,16.68 114.6,15.68 113.2,15.36 L113.2,15.16 C117.12,14.68 118.48,12.2 118.48,8.32 C118.48,2 115.48,0.16 108.28,0.16 C104.85931,0.16 102.732319,0.17902497 100.652561,0.295798926 L100.028805,0.333842306 C99.2998335,0.381831153 98.5613793,0.442758621 97.76,0.52 L97.76,28.12 L103.76,28.12 Z M108.16,12.64 L103.76,12.64 L103.76,4.88 L108.16,4.84 C111.36,4.84 112.32,5.64 112.32,8.72 C112.32,11.76 111.36,12.64 108.16,12.64 Z M129.16,28.12 L129.16,0.52 L123.08,0.52 L123.08,28.12 L129.16,28.12 Z M140.16,28.12 L140.16,11.72 C140.16,10.28 140.08,8.76 139.88,7.32 L140.32,7.32 C140.64,8.68 141.44,10.4 142,11.6 L149.24,26.32 C149.84,27.52 150.4,28.12 151.68,28.12 L155.48,28.12 C156.92,28.12 157.64,27.36 157.64,25.92 L157.64,0.52 L151.88,0.52 L151.88,16.4 C151.88,17.96 152,19.48 152.12,21.04 L151.72,21.04 C151.08,19.48 150.32,17.8 149.72,16.6 L142.72,2.32 C142.12,1.12 141.56,0.52 140.28,0.52 L136.56,0.52 C135.12,0.52 134.36,1.28 134.36,2.72 L134.36,28.12 L140.16,28.12 Z M170.72,28.64 C174.52,28.64 177.28,26.8 178.68,25.32 L179.24,28.12 L183.72,28.12 L183.72,12.2 L177.84,12.2 L177.84,22.04 C176.48,22.8 174.84,23.44 172.88,23.44 C169.44,23.44 168.36,21.32 168.36,14.44 C168.36,6.44 169.88,5.24 174.48,5.24 C176.88,5.24 179.56,5.32 182.28,5.44 L182.76,0.96 C180.16,0.24 177.52,-2.91322522e-13 174.28,-2.91322522e-13 C165.2,-2.91322522e-13 161.92,3.32 161.92,14.24 C161.92,24.36 164.52,28.64 170.72,28.64 Z" id="REWIRING-Copy" stroke-width="2"></path>
                        </g>
                    </g>
                </g>
            </g>
        </g>
    </g>
</svg>