<svg width="38" height="38" viewBox="0 0 38 38" fill="none" xmlns="http://www.w3.org/2000/svg">
<path fill-rule="evenodd" clip-rule="evenodd" d="M14.402 37.4312C24.583 39.9694 34.8933 33.7749 37.4313 23.5963C39.9692 13.4172 33.7746 3.10623 23.5943 0.568567C13.4163 -1.9691 3.10592 4.22603 0.569147 14.4058C-1.97 24.5837 4.22526 34.8935 14.402 37.4312ZM23.1988 11.4994C25.8312 12.406 27.7563 13.7651 27.378 16.2933C27.1043 18.144 26.0782 19.0399 24.716 19.354C26.5865 20.3278 27.5384 21.821 26.6316 24.4098C25.5063 27.6249 22.833 27.8962 19.2778 27.2235L18.415 30.6809L16.3301 30.1614L17.1817 26.7503C16.6413 26.6161 16.089 26.4736 15.5202 26.3192L14.6657 29.7463L12.5832 29.2268L13.446 25.7629C13.2513 25.7131 13.0555 25.662 12.8582 25.6106C12.562 25.5333 12.2627 25.4553 11.9597 25.3793L9.24654 24.7031L10.2816 22.3168C10.2816 22.3168 11.8178 22.7253 11.797 22.695C12.3872 22.8411 12.6491 22.4563 12.7524 22.1998L14.1158 16.7344C14.167 16.7467 14.217 16.7593 14.2654 16.7714L14.2655 16.7714L14.3361 16.7891C14.253 16.7558 14.1776 16.7344 14.1194 16.7196L15.092 12.8181C15.1176 12.3752 14.965 11.8165 14.1206 11.6057C14.1532 11.5837 12.6063 11.2292 12.6063 11.2292L13.161 9.0027L16.0362 9.72054L16.0338 9.73122C16.4661 9.83869 16.9115 9.94081 17.3652 10.0441L18.2197 6.6206L20.3033 7.14012L19.4661 10.4966C20.0254 10.6242 20.5884 10.7531 21.1365 10.8896L21.9678 7.55515L24.0527 8.07468L23.1988 11.4994ZM16.6042 23.9162C18.3054 24.3654 22.0234 25.3473 22.6145 22.9723C23.2202 20.5439 19.6143 19.7349 17.8548 19.3401L17.8548 19.3401C17.6582 19.296 17.4846 19.2571 17.3426 19.2216L16.1977 23.8107C16.3144 23.8396 16.4511 23.8757 16.6042 23.9162ZM23.2593 16.2559C22.7204 18.4145 19.6267 17.589 18.2083 17.2105L18.2081 17.2104C18.0793 17.1761 17.9643 17.1454 17.8663 17.121L18.9043 12.9588C19.0233 12.9885 19.169 13.0207 19.3342 13.0573C20.8027 13.3823 23.8097 14.0479 23.2593 16.2559Z" fill="#F2A900"/>
</svg>
