<?xml version="1.0" encoding="UTF-8"?>
<svg width="396px" height="295px" viewBox="0 0 396 295" version="1.1" xmlns="http://www.w3.org/2000/svg" xmlns:xlink="http://www.w3.org/1999/xlink">
    <title>children-on-see-saw</title>
    <g id="Active---THORChain.org" stroke="none" stroke-width="1" fill="none" fill-rule="evenodd">
        <g id="RUNE---FINAL" transform="translate(-955.000000, -9095.000000)" fill="#02121D" fill-rule="nonzero">
            <g id="Content" transform="translate(72.000000, 209.000000)">
                <g id="But-Sir" transform="translate(883.000000, 8876.000000)">
                    <g id="children-on-see-saw" transform="translate(-9.000000, 10.000000)">
                        <path d="M45.3005251,110 C80.6759526,110 80.9898694,55 45.6966581,55 C10.3212306,55 10.0147881,110 45.3005251,110 Z" id="Path"></path>
                        <path d="M355.514494,54.9257884 C390.69963,52.5774514 386.742049,-2.28210153 351.482242,0.0737381316 C316.312041,2.43708047 320.24722,57.2891307 355.514494,54.9257884 Z" id="Path"></path>
                        <path d="M387.508517,171.497894 C384.652265,171.933329 381.515554,172.383525 378.223852,172.870622 C383.183546,169.453561 386.918078,163.933125 388.069435,155.947682 C391.346376,133.068871 392.180372,109.939132 388.659875,87.0603205 C386.416204,72.4990644 375.279034,60.9341944 359.676664,62.078135 C347.712879,62.9490059 336.095977,73.0968656 334.619877,85.2742972 C318.714907,95.8575924 302.499955,106.005452 286.041447,115.717876 C277.583398,120.706933 278.225501,129.710852 283.037585,135.659343 C281.037471,136.847565 279.450664,138.840236 279.066878,141.703777 C276.978197,157.187566 274.919039,172.649214 272.793456,188.125623 C225.897779,195.159012 199.756059,199.653592 152.838241,206.716502 C146.978127,191.653388 141.125393,176.590274 135.272659,161.52716 C131.973577,153.032479 120.548568,158.220803 120.710939,166.139824 C120.068835,165.682247 119.426732,165.217291 118.6444,164.826137 C101.56593,156.235513 84.7383973,147.172551 68.1618015,137.674155 C65.8959889,125.622187 53.6222228,116.271396 41.6141545,116.190213 C25.9896428,116.079509 15.6274253,128.367645 14.3727408,143.046985 C12.3947677,166.110303 14.7491461,189.15886 19.5464691,211.74984 C20.838056,217.853317 23.5909813,222.362657 27.1631418,225.55093 C21.6868131,226.355378 16.2104845,227.196728 10.7341559,228.015937 C-7.5030517,230.761394 -0.661331166,258.5776 17.47993,255.846904 C45.9834086,251.566352 74.4795067,247.300561 102.975605,243.020009 C106.953693,254.186345 110.378243,265.522427 113.669945,276.91755 C118.784629,294.608038 146.417209,287.080171 141.280383,269.308501 C138.313423,259.027796 135.243137,248.820894 131.781684,238.709936 C178.264053,231.750349 224.768563,224.768622 271.243551,217.794275 C270.970473,219.019398 270.682634,220.244522 270.439077,221.469645 C266.490511,239.558666 294.573302,245.241468 298.492345,227.233629 C299.532996,222.539783 300.566265,217.875458 301.665959,213.240653 C332.538577,208.613229 363.389054,203.985805 394.269052,199.358381 C412.50626,196.590783 405.657159,168.774577 387.508517,171.497894 Z M118.851053,211.786742 C116.592621,209.225791 113.441149,207.343824 109.315452,206.856727 C97.1154904,205.417576 84.8048217,204.362199 72.4793921,203.653693 C72.4498701,201.749586 72.2432162,199.786436 71.8151474,197.727343 C69.8740767,188.627481 68.6562947,179.56452 68.110138,170.457277 C80.0296403,177.03309 92.0598501,183.402256 104.222909,189.527873 C114.061111,194.480028 123.146503,187.609005 125.375413,179.534998 C129.19851,189.387648 133.028988,199.247677 136.859466,209.092946 C130.851741,209.985958 124.851397,210.88635 118.851053,211.786742 Z M335.018424,145.44557 C334.723204,147.519424 334.634638,149.504714 334.745346,151.401441 C322.493721,152.929155 310.29376,154.788981 298.197126,157.047341 C296.049401,157.460636 294.263321,158.287225 292.676514,159.320462 C293.444086,153.6229 294.211657,147.910578 294.979229,142.205635 C295.016131,141.962087 294.99399,141.740679 295.008751,141.49713 C297.311466,141.438088 299.732269,140.855047 302.153072,139.438037 C313.86592,132.507972 325.44592,125.356498 336.89307,117.998377 C336.959495,127.09824 336.339533,136.235004 335.018424,145.44557 Z" id="Shape"></path>
                        <path d="M232.975787,253.932223 C231.987893,239.743943 224.237288,229 214.489104,229 C204.755448,229 196.997579,239.743943 196.016949,253.932223 L195.552058,253.932223 L192,299 L237,299 L233.455206,253.932223 C233.455206,253.932223 232.975787,253.932223 232.975787,253.932223 Z M200.789346,253.932223 C201.711864,242.792294 207.602906,233.856441 214.489104,233.856441 C221.375303,233.856441 227.273608,242.769879 228.20339,253.932223 L200.789346,253.932223 Z" id="Shape"></path>
                    </g>
                </g>
            </g>
        </g>
    </g>
</svg>