<?xml version="1.0" encoding="UTF-8"?>
<svg width="53px" height="58px" viewBox="0 0 53 58" version="1.1" xmlns="http://www.w3.org/2000/svg" xmlns:xlink="http://www.w3.org/1999/xlink">
    <title>surprised-man</title>
    <g id="⚡-Active---THORChain.org" stroke="none" stroke-width="1" fill="none" fill-rule="evenodd">
        <g id="Homepage---FINAL" transform="translate(-729.000000, -451.000000)" fill="#F3BA2F" fill-rule="nonzero">
            <g id="Cards" transform="translate(101.000000, 105.000000)">
                <g id="Header-Card" transform="translate(44.000000, 0.000000)">
                    <g id="Content" transform="translate(0.000000, 102.000000)">
                        <g id="Button" transform="translate(567.000000, 238.000000)">
                            <g id="surprised-man" transform="translate(43.500000, 50.000000) scale(-1, 1) translate(-43.500000, -50.000000) translate(17.000000, 6.000000)">
                                <path d="M44.1290039,35.2156269 C41.9495931,36.6075801 39.3957185,38.0748589 36.7259011,37.4063447 C35.5664733,37.1160275 34.8347804,36.1697504 34.3475074,35.0398673 C35.9816738,29.0922881 28.4970977,22.7978976 22.7563636,26.950218 C17.6752498,27.6862113 9.34303801,26.193824 7.84361592,20.8190328 C6.46170339,15.8742249 -1.218722,17.9770629 0.166324113,22.9391329 C2.10914898,29.9083148 9.23179562,33.7907187 16.4484499,34.8185985 C14.4037834,38.3965617 12.9278632,42.3385984 12.1930367,46.2178638 C12.0880615,46.7733896 12.0379241,47.3289155 12.0316569,47.8797335 C5.07979087,57.0317868 1.65634544,68.8626047 2.35356888,81.4686479 C2.50084754,84.1207346 4.69592628,86.1764942 7.31717305,86.1764942 C7.41118071,86.1764942 7.50362157,86.1733556 7.59762922,86.1655092 C10.3410859,86.0148581 12.4437238,83.6640735 12.290178,80.9146913 C11.8781111,73.5014026 13.1942183,66.4663109 16.0489174,60.3884812 C16.0990548,68.8877132 17.6188452,77.153122 20.5973211,84.823773 C21.3634835,86.7963606 23.2436366,88 25.2350321,88 C25.8351142,88 26.446164,87.8917195 27.0368454,87.6594658 C29.598554,86.6629716 30.8676574,83.7707847 29.872743,81.2097163 C25.8915188,70.9544577 24.9655434,59.3982642 27.1574886,47.6961275 C27.7215345,45.6231059 28.4704622,43.9125884 29.614222,41.9886485 C30.7877509,43.2550592 32.2307684,44.271954 33.9887115,44.8824047 C38.8724092,46.580368 43.9801584,44.7600007 48.1415639,42.1032061 C52.4596489,39.3444081 48.4705907,32.4411361 44.1290039,35.2156269 Z" id="Path"></path>
                                <ellipse id="Oval" cx="35" cy="16.5" rx="9" ry="8.5"></ellipse>
                                <path d="M45.5431509,2.14902458 C46.1311985,1.53116485 46.1527263,0.679157951 45.6009359,0.246965587 C45.0514116,-0.185226777 44.1268511,-0.0356614002 43.5456017,0.582198328 C42.9598201,1.20005806 43.0006095,3 43.0006095,3 C43.0006095,3 44.9585023,2.76688431 45.5431509,2.14902458 Z" id="Path"></path>
                                <path d="M50.6481014,15.3370915 C49.3808856,14.799776 46,15.0659041 46,15.0659041 C46,15.0659041 46.7987897,17.1048697 48.0742235,17.6431971 C49.3414392,18.1825364 50.9505239,18.100573 51.6638463,17.4640919 C52.3738816,16.8286227 51.9235352,15.8754189 50.6481014,15.3370915 Z" id="Path"></path>
                                <path d="M49.8193979,8.99963874 C51.6126622,8.97403433 53.0389581,8.27861854 52.9991881,7.45108399 C52.9612259,6.62354944 51.475275,5.97319741 49.6765875,6.00085017 C47.8833232,6.02747876 45,7.5719368 45,7.5719368 C45,7.5719368 48.0261335,9.02626733 49.8193979,8.99963874 Z" id="Path"></path>
                            </g>
                        </g>
                    </g>
                </g>
            </g>
        </g>
    </g>
</svg>